{
	"variables": [],
	"info": {
		"name": "Concurrencia",
		"_postman_id": "98ecd08a-9680-1f28-2b16-7ada7768c6f4",
		"description": "",
		"schema": "https://schema.getpostman.com/json/collection/v2.0.0/collection.json"
	},
	"item": [
		{
			"name": "Ingresar Ingrediente",
			"event": [
				{
					"listen": "test",
					"script": {
						"type": "text/javascript",
						"exec": [
							"tests[\"Status code is 200\"]=responseCode.code==200;"
						]
					}
				}
			],
			"request": {
				"url": "http://localhost:8080/RotondAndes/rest/ID3/ingredientes",
				"method": "POST",
				"header": [
					{
						"key": "Content-Type",
						"value": "application/json",
						"description": ""
					}
				],
				"body": {
					"mode": "raw",
					"raw": "{\n        \"nombre\": \"Mantequilla\",\n        \"descripcion\": \"Con sal\",\n        \"descTraducida\": \"Salty butter\"\n    }"
				},
				"description": "Un usuario restaurante ingresa un ingrediente"
			},
			"response": []
		},
		{
			"name": "Eliminar Ingrediente",
			"event": [
				{
					"listen": "test",
					"script": {
						"type": "text/javascript",
						"exec": [
							"tests[\"Status code is 200\"]=responseCode.code==200;"
						]
					}
				}
			],
			"request": {
				"url": "http://localhost:8080/RotondAndes/rest/ID3/ingredientes",
				"method": "DELETE",
				"header": [
					{
						"key": "Content-Type",
						"value": "application/json",
						"description": ""
					}
				],
				"body": {
					"mode": "raw",
					"raw": "{\n        \"nombre\": \"Mantequilla\",\n        \"descripcion\": \"Con sal\",\n        \"descTraducida\": \"Salty butter\"\n    }"
				},
				"description": "Un usuario restaurante borra un ingrediente"
			},
			"response": []
		},
		{
			"name": "Agregar un producto a un menu",
			"event": [
				{
					"listen": "test",
					"script": {
						"type": "text/javascript",
						"exec": [
							"tests[\"Status code is 200\"]=responseCode.code==200;"
						]
					}
				}
			],
			"request": {
				"url": "http://localhost:8080/RotondAndes/rest/ID3/productosMenu",
				"method": "POST",
				"header": [
					{
						"key": "Content-Type",
						"value": "application/json",
						"description": ""
					}
				],
				"body": {
					"mode": "raw",
					"raw": "{\n        \"nomMenu\": \"MenuFantastico\",\n        \"nomProducto\": \"Leche asada\"\n    }"
				},
				"description": "Lo hac eun usuario restaurante y es de una categoria que falta en el menu"
			},
			"response": []
		},
		{
			"name": "Obtener los productos de un menu",
			"event": [
				{
					"listen": "test",
					"script": {
						"type": "text/javascript",
						"exec": [
							"tests[\"Status code is 200\"]=responseCode.code==200;"
						]
					}
				}
			],
			"request": {
				"url": "http://localhost:8080/RotondAndes/rest/0/productosMenu/MenuFantastico",
				"method": "GET",
				"header": [
					{
						"key": "Content-Type",
						"value": "application/json",
						"description": ""
					}
				],
				"body": {
					"mode": "raw",
					"raw": "{\n        \"nombre\": \"USUARIO6\",\n        \"identificacion\": \"ID6\",\n        \"correo\": \"CORREONUEVO\",\n        \"rol\": \"UsuarioCliente\"\n}"
				},
				"description": "Lo hace cualquiera"
			},
			"response": []
		},
		{
			"name": "Agregar Pedido",
			"event": [
				{
					"listen": "test",
					"script": {
						"type": "text/javascript",
						"exec": [
							"tests[\"Status code is 200\"]=responseCode.code==200;"
						]
					}
				}
			],
			"request": {
				"url": "http://localhost:8080/RotondAndes/rest/0/pedidos/ind",
				"method": "POST",
				"header": [
					{
						"key": "Content-Type",
						"value": "application/json",
						"description": ""
					}
				],
				"body": {
					"mode": "raw",
					"raw": "{\n        \"idPedido\": 33,\n        \"fecha\": \"2017-10-04\",\n        \"idZona\": 2,\n        \"precioTotal\": 0,\n        \"idUsuario\": null\n    }"
				},
				"description": "Lo hace un usuario no registrado"
			},
			"response": []
		},
		{
			"name": "Agregar un producto al pedido",
			"event": [
				{
					"listen": "test",
					"script": {
						"type": "text/javascript",
						"exec": [
							"tests[\"Status code is 200\"]=responseCode.code==200;"
						]
					}
				}
			],
			"request": {
				"url": "http://localhost:8080/RotondAndes/rest/0/productosPedidos",
				"method": "POST",
				"header": [
					{
						"key": "Content-Type",
						"value": "application/json",
						"description": ""
					}
				],
				"body": {
					"mode": "raw",
					"raw": "{\n        \"idPedido\": 1,\n        \"nomProducto\": \"Empanadas\",\n        \"nomRestaurante\": \"Subway\"\n}"
				},
				"description": "Lo hace un usuario no registrado"
			},
			"response": []
		},
		{
			"name": "Consultar que las unidades disponibles cambiaron",
			"event": [
				{
					"listen": "test",
					"script": {
						"type": "text/javascript",
						"exec": [
							"tests[\"Status code is 200\"]=responseCode.code==200;"
						]
					}
				}
			],
			"request": {
				"url": "http://localhost:8080/RotondAndes/rest/0/restaurantesProducto/Subway",
				"method": "GET",
				"header": [
					{
						"key": "Content-Type",
						"value": "application/json",
						"description": ""
					}
				],
				"body": {
					"mode": "raw",
					"raw": "{\n        \"idPedido\": 2,\n        \"nomProducto\": \"Empanadas\",\n        \"nomRestaurante\": \"Subway\"\n}"
				},
				"description": ""
			},
			"response": []
		},
		{
			"name": "Agregar una preferencia de un usuario",
			"event": [
				{
					"listen": "test",
					"script": {
						"type": "text/javascript",
						"exec": [
							"tests[\"Status code is 200\"]=responseCode.code==200;"
						]
					}
				}
			],
			"request": {
				"url": "http://localhost:8080/RotondAndes/rest/ID1/preferencias/ID1",
				"method": "POST",
				"header": [
					{
						"key": "Content-Type",
						"value": "application/json",
						"description": ""
					}
				],
				"body": {
					"mode": "raw",
					"raw": "{\n        \"idCliente\": \"ID1\",\n        \"tipo\": \"Dulces\"\n    }"
				},
				"description": "Lo hace el mismo usuario"
			},
			"response": []
		},
		{
			"name": "Borrar una preferencia",
			"event": [
				{
					"listen": "test",
					"script": {
						"type": "text/javascript",
						"exec": [
							"tests[\"Status code is 200\"]=responseCode.code==200;"
						]
					}
				}
			],
			"request": {
				"url": "http://localhost:8080/RotondAndes/rest/ID1/preferencias/ID1",
				"method": "DELETE",
				"header": [
					{
						"key": "Content-Type",
						"value": "application/json",
						"description": ""
					}
				],
				"body": {
					"mode": "raw",
					"raw": "{\n        \"idCliente\": \"ID1\",\n        \"tipo\": \"Dulces\"\n }"
				},
				"description": "Lo hace el mismo usuario"
			},
			"response": []
		},
		{
			"name": "Agregar un producto a un restaurante",
			"event": [
				{
					"listen": "test",
					"script": {
						"type": "text/javascript",
						"exec": [
							"tests[\"Status code is 200\"]=responseCode.code==200;"
						]
					}
				}
			],
			"request": {
				"url": "http://localhost:8080/RotondAndes/rest/ID3/restaurantesProducto",
				"method": "POST",
				"header": [
					{
						"key": "Content-Type",
						"value": "application/json",
						"description": ""
					}
				],
				"body": {
					"mode": "raw",
					"raw": "{\n        \"nomProducto\": \"Salsa de soya\",\n        \"nomRestaurante\": \"Mafia\",\n        \"costoProd\": 3500,\n        \"precio\": 5000,\n        \"unidadesDisponibles\": 5\n    }"
				},
				"description": "Lo hace un usuario restaurante"
			},
			"response": []
		},
		{
			"name": "Eliminar Producto de un restaurante",
			"event": [
				{
					"listen": "test",
					"script": {
						"type": "text/javascript",
						"exec": [
							"tests[\"Status code is 200\"]=responseCode.code==200;"
						]
					}
				}
			],
			"request": {
				"url": "http://localhost:8080/RotondAndes/rest/ID3/restaurantesProducto",
				"method": "DELETE",
				"header": [
					{
						"key": "Content-Type",
						"value": "application/json",
						"description": ""
					}
				],
				"body": {
					"mode": "raw",
					"raw": "{\n        \"nomProducto\": \"Salsa de soya\",\n        \"nomRestaurante\": \"Mafia\",\n        \"costoProd\": 3500,\n        \"precio\": 5000,\n        \"unidadesDisponibles\": 5\n    }"
				},
				"description": "Lo hace un usuario restaurante"
			},
			"response": []
		},
		{
			"name": "Agregar un restaurante",
			"event": [
				{
					"listen": "test",
					"script": {
						"type": "text/javascript",
						"exec": [
							"tests[\"Status code is 200\"]=responseCode.code==200;"
						]
					}
				}
			],
			"request": {
				"url": "http://localhost:8080/RotondAndes/rest/ID2/restaurantes",
				"method": "POST",
				"header": [
					{
						"key": "Content-Type",
						"value": "application/json",
						"description": ""
					}
				],
				"body": {
					"mode": "raw",
					"raw": "{\n        \"nombre\": \"CasaYumYum\",\n        \"representante\": \"Michel Neft\",\n        \"tipoComida\": \"Dulces\",\n        \"paginaWeb\": \"com.feedburner.yumyum\"\n    }"
				},
				"description": "Lo hace un usuario admin"
			},
			"response": []
		},
		{
			"name": "Eliminar un restaurante",
			"event": [
				{
					"listen": "test",
					"script": {
						"type": "text/javascript",
						"exec": [
							"tests[\"Status code is 200\"]=responseCode.code==200;"
						]
					}
				}
			],
			"request": {
				"url": "http://localhost:8080/RotondAndes/rest/ID2/restaurantes/CasaYumYum",
				"method": "DELETE",
				"header": [
					{
						"key": "Content-Type",
						"value": "application/json",
						"description": ""
					}
				],
				"body": {
					"mode": "raw",
					"raw": "{\n        \"nombre\": \"CasaYumYum\",\n        \"representante\": \"Michel Neft\",\n        \"tipoComida\": \"Dulces\",\n        \"paginaWeb\": \"com.feedburner.yumyum\"\n    }"
				},
				"description": "Lo hace un usuario admin"
			},
			"response": []
		},
		{
			"name": "Agregar un Cliente",
			"event": [
				{
					"listen": "test",
					"script": {
						"type": "text/javascript",
						"exec": [
							"tests[\"Status code is 200\"]=responseCode.code==200;"
						]
					}
				}
			],
			"request": {
				"url": "http://localhost:8080/RotondAndes/rest/ID2/usuarios",
				"method": "POST",
				"header": [
					{
						"key": "Content-Type",
						"value": "application/json",
						"description": ""
					}
				],
				"body": {
					"mode": "raw",
					"raw": "{\n        \"nombre\": \"USUARIO6\",\n        \"identificacion\": \"ID6\",\n        \"correo\": \"CORREO5\",\n        \"rol\": \"UsuarioCliente\"\n    }"
				},
				"description": "Lo hace un admin"
			},
			"response": []
		},
		{
			"name": "Editar un usuario",
			"event": [
				{
					"listen": "test",
					"script": {
						"type": "text/javascript",
						"exec": [
							"tests[\"Status code is 200\"]=responseCode.code==200;"
						]
					}
				}
			],
			"request": {
				"url": "http://localhost:8080/RotondAndes/rest/ID6/usuarios",
				"method": "PUT",
				"header": [
					{
						"key": "Content-Type",
						"value": "application/json",
						"description": ""
					}
				],
				"body": {
					"mode": "raw",
					"raw": "{\n        \"nombre\": \"USUARIO6\",\n        \"identificacion\": \"ID6\",\n        \"correo\": \"CORREONUEVO\",\n        \"rol\": \"UsuarioCliente\"\n}"
				},
				"description": "Lo hace el mismo"
			},
			"response": []
		},
		{
			"name": "Eliminar un usuario",
			"event": [
				{
					"listen": "test",
					"script": {
						"type": "text/javascript",
						"exec": [
							"tests[\"Status code is 200\"]=responseCode.code==200;"
						]
					}
				}
			],
			"request": {
				"url": "http://localhost:8080/RotondAndes/rest/ID2/usuarios",
				"method": "DELETE",
				"header": [
					{
						"key": "Content-Type",
						"value": "application/json",
						"description": ""
					}
				],
				"body": {
					"mode": "raw",
					"raw": "{\n        \"nombre\": \"USUARIO6\",\n        \"identificacion\": \"ID6\",\n        \"correo\": \"CORREONUEVO\",\n        \"rol\": \"UsuarioCliente\"\n}"
				},
				"description": "Lo hace un admin"
			},
			"response": []
		},
		{
			"name": "Agregar una Equivalencia Ingrediente",
			"event": [
				{
					"listen": "test",
					"script": {
						"type": "text/javascript",
						"exec": [
							"tests[\"Status code is 200\"]=responseCode.code==200;"
						]
					}
				}
			],
			"request": {
				"url": "http://localhost:8080/RotondAndes/rest/ID3/EquivalenciaIngredientes",
				"method": "POST",
				"header": [
					{
						"key": "Content-Type",
						"value": "application/json",
						"description": ""
					}
				],
				"body": {
					"mode": "raw",
					"raw": "{\n\t\"nomEquivalencia\":\"QuesoSandwich\",\n\t\"nomIngrediente\":\"QuesoCrema\",\n\t\"nomRestaurante\":\"Mafia\"\n}"
				},
				"description": ""
			},
			"response": []
		},
		{
			"name": "Agregar dos ingredientes equivalentes",
			"event": [
				{
					"listen": "test",
					"script": {
						"type": "text/javascript",
						"exec": [
							"tests[\"Status code is 200\"]=responseCode.code==200;"
						]
					}
				}
			],
			"request": {
				"url": "http://localhost:8080/RotondAndes/rest/ID3/EquivalenciaIngredientes",
				"method": "POST",
				"header": [
					{
						"key": "Content-Type",
						"value": "application/json",
						"description": ""
					}
				],
				"body": {
					"mode": "raw",
					"raw": "{\n\t\"nomEquivalencia\":\"QuesoSandwich\",\n\t\"nomIngrediente\":\"QuesoSabana\",\n\t\"nomRestaurante\":\"Mafia\"\n}"
				},
				"description": ""
			},
			"response": []
		},
		{
			"name": "Obtener las Equivalencias de Ingredientes",
			"event": [
				{
					"listen": "test",
					"script": {
						"type": "text/javascript",
						"exec": [
							"tests[\"Status code is 200\"]=responseCode.code==200;"
						]
					}
				}
			],
			"request": {
				"url": "http://localhost:8080/RotondAndes/rest/0/EquivalenciaIngredientes",
				"method": "GET",
				"header": [
					{
						"key": "Content-Type",
						"value": "application/json",
						"description": ""
					}
				],
				"body": {
					"mode": "raw",
					"raw": "{\n\t\"nomEquivalencia\":\"Fruta\",\n\t\"nomIngrediente\":\"Mora\",\n\t\"nomRestaurante\":\"Mafia\"\n}"
				},
				"description": ""
			},
			"response": []
		},
		{
			"name": "Crear un pedido para probar Equivalencias",
			"event": [
				{
					"listen": "test",
					"script": {
						"type": "text/javascript",
						"exec": [
							"tests[\"Status code is 500\"]=responseCode.code==500;"
						]
					}
				}
			],
			"request": {
				"url": "http://localhost:8080/RotondAndes/rest/0/pedidos/ind",
				"method": "POST",
				"header": [
					{
						"key": "Content-Type",
						"value": "application/json",
						"description": ""
					}
				],
				"body": {
					"mode": "raw",
					"raw": "{\n        \"idPedido\": 66,\n        \"fecha\": \"2017-10-04\",\n        \"idZona\": 2,\n        \"precioTotal\": 0,\n        \"numMesa\":3\n}"
				},
				"description": ""
			},
			"response": []
		},
		{
			"name": "Agregar un menu con hamburguesa y jugo de mora al pedido",
			"event": [
				{
					"listen": "test",
					"script": {
						"type": "text/javascript",
						"exec": [
							"tests[\"Status code is 200\"]=responseCode.code==200;"
						]
					}
				}
			],
			"request": {
				"url": "http://localhost:8080/RotondAndes/rest/0/productosPedidos",
				"method": "POST",
				"header": [
					{
						"key": "Content-Type",
						"value": "application/json",
						"description": ""
					}
				],
				"body": {
					"mode": "raw",
					"raw": "{\n        \"idPedido\": 66,\n        \"nomProducto\": \"MenuFantastico\",\n        \"nomRestaurante\": \"Mafia\"\n}"
				},
				"description": ""
			},
			"response": []
		},
		{
			"name": "Consultar productos del pedido",
			"event": [
				{
					"listen": "test",
					"script": {
						"type": "text/javascript",
						"exec": [
							"tests[\"Status code is 200\"]=responseCode.code==200;"
						]
					}
				}
			],
			"request": {
				"url": "http://localhost:8080/RotondAndes/rest/0/productosPedidos/66",
				"method": "GET",
				"header": [
					{
						"key": "Content-Type",
						"value": "application/json",
						"description": ""
					}
				],
				"body": {
					"mode": "raw",
					"raw": "{\n        \"nomEquivalencia\": \"PostreTipo1\",\n        \"nomProducto\": \"Leche asada\",\n        \"nomRestaurante\": \"Papelon\"\n    }"
				},
				"description": ""
			},
			"response": []
		},
		{
			"name": "Agregar una EquivalenciaIngrediente en Pedido",
			"event": [
				{
					"listen": "test",
					"script": {
						"type": "text/javascript",
						"exec": [
							"tests[\"Status code is 200\"]=responseCode.code==200;"
						]
					}
				}
			],
			"request": {
				"url": "http://localhost:8080/RotondAndes/rest/0/EquivalenciaIngredientes/enPedido",
				"method": "POST",
				"header": [
					{
						"key": "Content-Type",
						"value": "application/json",
						"description": ""
					}
				],
				"body": {
					"mode": "raw",
					"raw": "{\n        \"idPedido\": 66,\n        \"nomProducto\": \"Hamburguesa\",\n        \"nomIngrediente\": \"QuesoCrema\",\n        \"nomRestaurante\": \"Mafia\",\n        \"nomEquivalencia\": \"QuesoSandwich\"\n}"
				},
				"description": ""
			},
			"response": []
		},
		{
			"name": "Revisar las equivalencias en el Pedido",
			"event": [
				{
					"listen": "test",
					"script": {
						"type": "text/javascript",
						"exec": [
							"tests[\"Status code is 200\"]=responseCode.code==200;"
						]
					}
				}
			],
			"request": {
				"url": "http://localhost:8080/RotondAndes/rest/0/pedidos/66",
				"method": "GET",
				"header": [
					{
						"key": "Content-Type",
						"value": "application/json",
						"description": ""
					}
				],
				"body": {
					"mode": "raw",
					"raw": " {\n        \"id\": 4,\n        \"capacidad\": 25,\n        \"abierto\": false,\n        \"accesoNecEsp\": false,\n        \"asadores\": true,\n        \"extractores\": true,\n        \"calentadores\": true,\n        \"acondicionarse\": true\n    }"
				},
				"description": ""
			},
			"response": []
		},
		{
			"name": "Agregar Equivalencia Producto al pedido",
			"event": [
				{
					"listen": "test",
					"script": {
						"type": "text/javascript",
						"exec": [
							"tests[\"Status code is 200\"]=responseCode.code==200;"
						]
					}
				}
			],
			"request": {
				"url": "http://localhost:8080/RotondAndes/rest/0/EquivalenciaProductos/enPedido",
				"method": "POST",
				"header": [
					{
						"key": "Content-Type",
						"value": "application/json",
						"description": ""
					}
				],
				"body": {
					"mode": "raw",
					"raw": "{\n        \"idPedido\": 66,\n        \"nomProducto\": \"HamburguesaChicken\",\n        \"nomRestaurante\": \"Mafia\",\n        \"nomEquivalencia\": \"Burger\"\n}"
				},
				"description": ""
			},
			"response": []
		},
		{
			"name": "Revisar si las unidades de los productos concuerdan",
			"event": [
				{
					"listen": "test",
					"script": {
						"type": "text/javascript",
						"exec": [
							"tests[\"Status code is 200\"]=responseCode.code==200;"
						]
					}
				}
			],
			"request": {
				"url": "http://localhost:8080/RotondAndes/rest/0/restaurantesProducto/Mafia",
				"method": "GET",
				"header": [
					{
						"key": "Content-Type",
						"value": "application/json",
						"description": ""
					}
				],
				"body": {
					"mode": "raw",
					"raw": "{\n        \"nombre\": \"Salsa de soya\",\n        \"descripcion\": \"Salsa asiatica\",\n        \"descTraducida\": \"asian sauce\",\n        \"tiempoPrep\": 10,\n        \"tipo\": \"Asiatico\",\n        \"categoria\": \"Acompanamiento\"\n    }"
				},
				"description": ""
			},
			"response": []
		}
	]
}